Penghasilan;Umur;Besar Pinjaman;Jangka Waktu;Hasil
4;4;4;4;Tidak
4;4;5;4;Tidak
4;3;4;4;Tidak
5;5;5;5;Layak
4;5;4;4;Tidak
5;4;4;4;Tidak
5;4;5;4;Tidak
5;5;5;5;Layak
4;3;5;4;Tidak
4;3;4;4;Tidak
5;5;5;5;Layak
4;4;4;4;Tidak
4;3;4;4;Tidak
4;3;5;4;Tidak
5;5;5;5;Layak
4;4;4;4;Tidak
4;3;4;4;Tidak
5;5;5;5;Layak
5;5;5;5;Layak
5;4;4;4;Tidak
4;3;4;4;Tidak
5;5;5;5;Layak
4;3;4;4;Tidak
4;3;4;4;Tidak
5;5;5;5;Layak
5;4;4;4;Tidak
4;3;4;4;Tidak
5;3;4;4;Tidak
5;4;4;4;Tidak
4;3;4;4;Tidak
5;5;5;5;Layak
5;5;5;5;Layak
4;3;4;4;Tidak
5;5;5;5;Layak
4;4;4;4;Tidak
5;3;5;4;Tidak
4;4;4;4;Tidak
4;3;4;4;Tidak
5;5;5;5;Layak
5;5;5;5;Layak
5;5;5;5;Layak
5;5;5;5;Layak
4;4;4;4;Tidak
4;4;4;4;Tidak
4;3;4;4;Tidak
4;3;4;4;Tidak
5;5;5;5;Layak
5;4;4;4;Tidak
4;3;4;4;Tidak
5;3;4;4;Tidak
5;4;4;4;Tidak
4;3;4;4;Tidak
5;5;5;5;Layak
5;5;5;5;Layak
4;3;4;4;Tidak
5;5;5;5;Layak
4;4;4;4;Tidak
5;5;5;5;Layak
4;4;4;4;Tidak
4;3;4;4;Tidak
5;5;5;5;Layak
5;3;4;4;Tidak
5;5;5;5;Layak
5;5;5;5;Layak
4;3;4;4;Tidak
5;5;5;5;Layak
5;5;5;5;Layak
4;3;4;4;Tidak
5;5;5;5;Layak
5;3;4;4;Tidak
