\relax 
\citation{haryati2012research}
\citation{pressman2012rekayasa}
\@writefile{toc}{\contentsline {chapter}{\numberline {IV}METODOLOGI PENELITIAN}{11}\protected@file@percent }
\@writefile{lof}{\addvspace {10\p@ }}
\@writefile{lot}{\addvspace {10\p@ }}
\@writefile{toc}{\contentsline {section}{\numberline {4.1}Diagram Alur Metodologi Penelitian}{11}\protected@file@percent }
\@writefile{toc}{\contentsline {paragraph}{}{11}\protected@file@percent }
\@writefile{toc}{\contentsline {paragraph}{}{11}\protected@file@percent }
\@writefile{lof}{\contentsline {figure}{\numberline {IV.1}{\ignorespaces Tahapan Dalam XP}}{11}\protected@file@percent }
\newlabel{extreme programming}{{IV.1}{11}}
\@writefile{toc}{\contentsline {section}{\numberline {4.2}Tahapan - Tahapan Diagram Alur Metodologi}{12}\protected@file@percent }
\@writefile{toc}{\contentsline {paragraph}{}{12}\protected@file@percent }
\@writefile{toc}{\contentsline {subsection}{\numberline {4.2.1} \textit  {Planning}}{12}\protected@file@percent }
\@writefile{toc}{\contentsline {paragraph}{}{12}\protected@file@percent }
\@writefile{toc}{\contentsline {subsection}{\numberline {4.2.2} \textit  {Design}}{12}\protected@file@percent }
\@writefile{toc}{\contentsline {paragraph}{}{12}\protected@file@percent }
\@writefile{toc}{\contentsline {subsection}{\numberline {4.2.3} \textit  {Coding}}{12}\protected@file@percent }
\@writefile{toc}{\contentsline {paragraph}{}{12}\protected@file@percent }
\@writefile{toc}{\contentsline {subsection}{\numberline {4.2.4} \textit  {Testing}}{12}\protected@file@percent }
\@writefile{toc}{\contentsline {paragraph}{}{12}\protected@file@percent }
\@setckpt{section/chapter4}{
\setcounter{page}{13}
\setcounter{equation}{0}
\setcounter{enumi}{3}
\setcounter{enumii}{0}
\setcounter{enumiii}{0}
\setcounter{enumiv}{0}
\setcounter{footnote}{0}
\setcounter{mpfootnote}{0}
\setcounter{part}{0}
\setcounter{chapter}{4}
\setcounter{section}{2}
\setcounter{subsection}{4}
\setcounter{subsubsection}{0}
\setcounter{paragraph}{0}
\setcounter{subparagraph}{0}
\setcounter{figure}{1}
\setcounter{table}{0}
}
