\relax 
\@writefile{lof}{\contentsline {figure}{\numberline {1}{\ignorespaces Simbol Flowchart\relax }}{xiv}\protected@file@percent }
\@setckpt{section/simbol}{
\setcounter{page}{15}
\setcounter{equation}{0}
\setcounter{enumi}{7}
\setcounter{enumii}{0}
\setcounter{enumiii}{0}
\setcounter{enumiv}{0}
\setcounter{footnote}{0}
\setcounter{mpfootnote}{0}
\setcounter{part}{0}
\setcounter{chapter}{0}
\setcounter{section}{0}
\setcounter{subsection}{0}
\setcounter{subsubsection}{0}
\setcounter{paragraph}{0}
\setcounter{subparagraph}{0}
\setcounter{figure}{1}
\setcounter{table}{0}
\setcounter{caption@flags}{0}
\setcounter{ContinuedFloat}{0}
}
